Machine Efficiency Example • CLPFUDecompositionDatabase
…
    V = NULL, Y = NULL, S_units = NULL
  ) |> 
  # Put the data in the correct format for expanding the vectors
  tidyr::pivot_longer(cols = "eta_i", names_to = "matnames", values_to = "matvals") |> 
  # Expand the vectors
  matsindf::expand_to_tidy() |> 
  # Clean up
  dplyr::rename(
    machine = rownames, 
    eta_i = matvals
  ) |> 
  dplyr::mutate(matnames = NULL, colnames = NULL)
#> Loading required package: Matrix
unpacked_eta_i_data
#> # A tibble: 2,482 × 8
#>    Country Method Energy.type Last.stage  Year IEAMW machine               eta_i
#>    <chr>   <chr>  <chr>       <chr>      <dbl> <chr> <chr>                 <dbl>
#>  1 USA     PCM    E           Final       1960 IEA   Blast furnaces        0.400
#>  2 USA     PCM    E           Final       1960 IEA   Coal mines            1    
#>  3 USA     PCM    E           Final       1960 IEA   Coke ovens            0.798
#>  4 USA     PCM    E           Final       1960 IEA   Gas works             0.929
#>  5 USA     PCM    E           Final       1960 IEA   Main activity produc… 0.377
#>  6 USA     PCM    E           Final       1960 IEA   Manufacture [of Geot… 1    
#>  7 USA     PCM    E           Final       1960 IEA   Manufacture [of Hydr… 1    
#>  8 USA     PCM    E           Final       1960 IEA   Manufacture [of Non-… 1    
#>  9 USA     PCM    E           Final       1960 IEA   Manufacture [of Nucl… 1    
#> 10 USA     PCM    E           Final       1960 IEA   Natural gas extracti… 0.973
#> # ℹ 2,472 more rows

Visualize the data

To create a graph for each machine, we can nest the data to create an
eta_i column that contains a tibble with year
and efficiency columns.

nested_eta_i_data <- unpacked_eta_i_data |> 
  tidyr::nest(.by = tidyr::all_of(c("Country", "Method", "Energy.type", "Last.stage", "IEAMW", "machine")), .key = "year_eta_i")
nested_eta_i_data
#> # A tibble: 62 × 7
#>    Country Method Energy.type Last.stage IEAMW machine                year_eta_i
#>    <chr>   <chr>  <chr>       <chr>      <chr> <chr>                  <list>    
#>  1 USA     PCM    E           Final      IEA   Blast furnaces         <tibble>  
#>  2 USA     PCM    E           Final      IEA   Coal mines             <tibble>  
#>  3 USA     PCM    E           Final      IEA   Coke ovens             <tibble>  
#>  4 USA     PCM    E           Final      IEA   Gas works              <tibble>  
#>  5 USA     PCM    E           Final      IEA   Main activity produce… <tibble>  
#>  6 USA     PCM    E           Final      IEA   Manufacture [of Geoth… <tibble>  
#>  7 USA     PCM    E           Final      IEA   Manufacture [of Hydro] <tibble>  
#>  8 USA     PCM    E           Final      IEA   Manufacture [of Non-s… <tibble>  
#>  9 USA     PCM    E           Final      IEA   Manufacture [of Nucle… <tibble>  
#> 10 USA     PCM    E           Final      IEA   Natural gas extraction <tibble>  
#> # ℹ 52 more rows
…
